tf-idf
…
tf-idf

Nick Rhodes

29 May 2019

Analysing the works of Dickens

1. Word-document frequency

## Joining, by = "title"

## # A tibble: 161,281 x 4
##    title                                         word      n  total
##    <chr>                                         <chr> <int>  <int>
##  1 The Pickwick Papers                           the   18347 305070
##  2 Little Dorrit                                 the   15731 341737
##  3 Martin Chuzzlewit                             the   15290 340421
##  4 Nicholas Nickleby                             the   15003 326369
##  5 Bleak House                                   the   14985 357743
##  6 David Copperfield                             the   13704 359109
##  7 David Copperfield                             i     13200 359109
##  8 Barnaby Rudge: A Tale of the Riots of 'Eighty the   12795 256897
##  9 Bleak House                                   and   12746 357743
## 10 David Copperfield                             and   12309 359109
## # ... with 161,271 more rows
…
